<svg width="77" height="77" viewBox="0 0 77 77" fill="none" xmlns="http://www.w3.org/2000/svg">
<rect width="77" height="77" fill="black"/>
<path d="M17.6016 8.50558C17.6016 7.79144 18.1806 7.21277 18.8953 7.21277C19.6099 7.21277 20.189 7.79144 20.189 8.50558C20.189 9.21973 19.6099 9.7984 18.8953 9.7984C18.1806 9.7984 17.6016 9.2205 17.6016 8.50558Z" fill="white"/>
<path d="M24.0396 8.50558C24.0396 7.79144 24.6186 7.21277 25.3333 7.21277C26.0479 7.21277 26.627 7.79144 26.627 8.50558C26.627 9.21973 26.0479 9.7984 25.3333 9.7984C24.6186 9.7984 24.0396 9.2205 24.0396 8.50558Z" fill="white"/>
<path d="M56.23 8.50558C56.23 7.79144 56.809 7.21277 57.5244 7.21277C58.2391 7.21277 58.8182 7.79144 58.8182 8.50558C58.8182 9.21973 58.2383 9.7984 57.5244 9.7984C56.809 9.7984 56.23 9.2205 56.23 8.50558Z" fill="white"/>
<path d="M49.792 8.50558C49.792 7.79144 50.3711 7.21277 51.0857 7.21277C51.8003 7.21277 52.3786 7.79144 52.3786 8.50558C52.3786 9.21973 51.7996 9.7984 51.0857 9.7984C50.3711 9.7984 49.792 9.2205 49.792 8.50558Z" fill="white"/>
<path d="M43.3545 8.50558C43.3545 7.79144 43.9336 7.21277 44.6474 7.21277C45.3613 7.21277 45.9411 7.79144 45.9411 8.50558C45.9411 9.21973 45.3613 9.7984 44.6474 9.7984C43.9336 9.7984 43.3545 9.2205 43.3545 8.50558Z" fill="white"/>
<path d="M36.916 8.50558C36.916 7.79144 37.4951 7.21277 38.2097 7.21277C38.9244 7.21277 39.5027 7.79144 39.5027 8.50558C39.5027 9.21973 38.9236 9.7984 38.2097 9.7984C37.4951 9.7984 36.916 9.2205 36.916 8.50558Z" fill="white"/>
<path d="M30.478 8.50558C30.478 7.79144 31.0571 7.21277 31.7717 7.21277C32.4864 7.21277 33.0654 7.79144 33.0654 8.50558C33.0654 9.21973 32.4864 9.7984 31.7717 9.7984C31.0571 9.7984 30.478 9.2205 30.478 8.50558Z" fill="white"/>
<path d="M17.6016 14.9482C17.6016 14.2341 18.1806 13.6554 18.8953 13.6554C19.6099 13.6554 20.189 14.2341 20.189 14.9482C20.189 15.6624 19.6099 16.241 18.8953 16.241C18.1806 16.241 17.6016 15.6631 17.6016 14.9482Z" fill="white"/>
<path d="M24.0396 14.9482C24.0396 14.2341 24.6186 13.6554 25.3333 13.6554C26.0479 13.6554 26.627 14.2341 26.627 14.9482C26.627 15.6624 26.0479 16.241 25.3333 16.241C24.6186 16.241 24.0396 15.6631 24.0396 14.9482Z" fill="white"/>
<path d="M56.23 14.9482C56.23 14.2341 56.809 13.6554 57.5237 13.6554C58.2383 13.6554 58.8174 14.2341 58.8174 14.9482C58.8174 15.6624 58.2376 16.241 57.5237 16.241C56.809 16.241 56.23 15.6631 56.23 14.9482Z" fill="white"/>
<path d="M49.792 14.9482C49.792 14.2341 50.3711 13.6554 51.0857 13.6554C51.8003 13.6554 52.3786 14.2341 52.3786 14.9482C52.3786 15.6624 51.7996 16.241 51.0857 16.241C50.3711 16.241 49.792 15.6631 49.792 14.9482Z" fill="white"/>
<path d="M43.3545 14.9482C43.3545 14.2341 43.9336 13.6554 44.6474 13.6554C45.3613 13.6554 45.9411 14.2341 45.9411 14.9482C45.9411 15.6624 45.3613 16.241 44.6474 16.241C43.9336 16.241 43.3545 15.6631 43.3545 14.9482Z" fill="white"/>
<path d="M36.916 14.9482C36.916 14.2341 37.4951 13.6554 38.2097 13.6554C38.9244 13.6554 39.5027 14.2341 39.5027 14.9482C39.5027 15.6624 38.9236 16.241 38.2097 16.241C37.4951 16.241 36.916 15.6631 36.916 14.9482Z" fill="white"/>
<path d="M30.478 14.9482C30.478 14.2341 31.0571 13.6554 31.7717 13.6554C32.4864 13.6554 33.0654 14.2341 33.0654 14.9482C33.0654 15.6624 32.4864 16.241 31.7717 16.241C31.0571 16.241 30.478 15.6631 30.478 14.9482Z" fill="white"/>
<path d="M17.6016 21.3908C17.6016 20.6767 18.1806 20.098 18.8953 20.098C19.6099 20.098 20.189 20.6767 20.189 21.3908C20.189 22.105 19.6099 22.6837 18.8953 22.6837C18.1806 22.6837 17.6016 22.105 17.6016 21.3908Z" fill="white"/>
<path d="M24.0396 21.3908C24.0396 20.6767 24.6186 20.098 25.3333 20.098C26.0479 20.098 26.627 20.6767 26.627 21.3908C26.627 22.105 26.0479 22.6837 25.3333 22.6837C24.6186 22.6837 24.0396 22.105 24.0396 21.3908Z" fill="white"/>
<path d="M56.23 21.3908C56.23 20.6767 56.809 20.098 57.5237 20.098C58.2383 20.098 58.8174 20.6767 58.8174 21.3908C58.8174 22.105 58.2376 22.6837 57.5237 22.6837C56.809 22.6837 56.23 22.105 56.23 21.3908Z" fill="white"/>
<path d="M49.792 21.3908C49.792 20.6767 50.3711 20.098 51.0857 20.098C51.8003 20.098 52.3786 20.6767 52.3786 21.3908C52.3786 22.105 51.7996 22.6837 51.0857 22.6837C50.3711 22.6837 49.792 22.105 49.792 21.3908Z" fill="white"/>
<path d="M43.3545 21.3908C43.3545 20.6767 43.9336 20.098 44.6474 20.098C45.3613 20.098 45.9411 20.6767 45.9411 21.3908C45.9411 22.105 45.3613 22.6837 44.6474 22.6837C43.9336 22.6837 43.3545 22.105 43.3545 21.3908Z" fill="white"/>
<path d="M36.916 21.3908C36.916 20.6767 37.4951 20.098 38.2097 20.098C38.9244 20.098 39.5027 20.6767 39.5027 21.3908C39.5027 22.105 38.9236 22.6837 38.2097 22.6837C37.4951 22.6837 36.916 22.105 36.916 21.3908Z" fill="white"/>
<path d="M30.478 21.3908C30.478 20.6767 31.0571 20.098 31.7717 20.098C32.4864 20.098 33.0654 20.6767 33.0654 21.3908C33.0654 22.105 32.4864 22.6837 31.7717 22.6837C31.0571 22.6837 30.478 22.105 30.478 21.3908Z" fill="white"/>
<path d="M17.6016 33.8988C17.6016 33.1846 18.1806 32.606 18.8953 32.606C19.6099 32.606 20.189 33.1846 20.189 33.8988C20.189 34.6129 19.6099 35.1916 18.8953 35.1916C18.1806 35.1916 17.6016 34.6129 17.6016 33.8988Z" fill="white"/>
<path d="M24.0396 33.8988C24.0396 33.1846 24.6186 32.606 25.3333 32.606C26.0479 32.606 26.627 33.1846 26.627 33.8988C26.627 34.6129 26.0479 35.1916 25.3333 35.1916C24.6186 35.1916 24.0396 34.6129 24.0396 33.8988Z" fill="white"/>
<path d="M56.23 33.8988C56.23 33.1846 56.809 32.606 57.5237 32.606C58.2383 32.606 58.8174 33.1846 58.8174 33.8988C58.8174 34.6129 58.2376 35.1916 57.5237 35.1916C56.809 35.1916 56.23 34.6129 56.23 33.8988Z" fill="white"/>
<path d="M49.792 33.8988C49.792 33.1846 50.3711 32.606 51.0857 32.606C51.8003 32.606 52.3786 33.1846 52.3786 33.8988C52.3786 34.6129 51.7996 35.1916 51.0857 35.1916C50.3711 35.1916 49.792 34.6129 49.792 33.8988Z" fill="white"/>
<path d="M43.3545 33.8988C43.3545 33.1846 43.9336 32.606 44.6474 32.606C45.3613 32.606 45.9411 33.1846 45.9411 33.8988C45.9411 34.6129 45.3613 35.1916 44.6474 35.1916C43.9336 35.1916 43.3545 34.6129 43.3545 33.8988Z" fill="white"/>
<path d="M36.916 33.8988C36.916 33.1846 37.4951 32.606 38.2097 32.606C38.9244 32.606 39.5027 33.1846 39.5027 33.8988C39.5027 34.6129 38.9236 35.1916 38.2097 35.1916C37.4951 35.1916 36.916 34.6129 36.916 33.8988Z" fill="white"/>
<path d="M30.478 33.8988C30.478 33.1846 31.0571 32.606 31.7717 32.606C32.4864 32.606 33.0654 33.1846 33.0654 33.8988C33.0654 34.6129 32.4864 35.1916 31.7717 35.1916C31.0571 35.1916 30.478 34.6129 30.478 33.8988Z" fill="white"/>
<path d="M17.6016 40.2863C17.6016 39.5729 18.1806 38.9943 18.8953 38.9943C19.6099 38.9943 20.189 39.5737 20.189 40.2863C20.189 41.0012 19.6099 41.5791 18.8953 41.5791C18.1806 41.5799 17.6016 41.0012 17.6016 40.2863Z" fill="white"/>
<path d="M24.0396 40.2863C24.0396 39.5729 24.6186 38.9943 25.3333 38.9943C26.0479 38.9943 26.627 39.5737 26.627 40.2863C26.627 41.0012 26.0479 41.5791 25.3333 41.5791C24.6186 41.5799 24.0396 41.0012 24.0396 40.2863Z" fill="white"/>
<path d="M56.23 40.2863C56.23 39.5729 56.809 38.9943 57.5237 38.9943C58.2383 38.9943 58.8174 39.5737 58.8174 40.2863C58.8174 41.0012 58.2376 41.5791 57.5237 41.5791C56.809 41.5799 56.23 41.0012 56.23 40.2863Z" fill="white"/>
<path d="M49.792 40.2863C49.792 39.5729 50.3711 38.9943 51.0857 38.9943C51.8003 38.9943 52.3786 39.5737 52.3786 40.2863C52.3786 41.0012 51.7996 41.5791 51.0857 41.5791C50.3711 41.5799 49.792 41.0012 49.792 40.2863Z" fill="white"/>
<path d="M43.3545 40.2863C43.3545 39.5729 43.9336 38.9943 44.6474 38.9943C45.3613 38.9943 45.9411 39.5737 45.9411 40.2863C45.9411 41.0012 45.3613 41.5791 44.6474 41.5791C43.9336 41.5791 43.3545 41.0012 43.3545 40.2863Z" fill="white"/>
<path d="M36.916 40.2863C36.916 39.5729 37.4951 38.9943 38.2097 38.9943C38.9244 38.9943 39.5027 39.5737 39.5027 40.2863C39.5027 41.0012 38.9236 41.5791 38.2097 41.5791C37.4951 41.5799 36.916 41.0012 36.916 40.2863Z" fill="white"/>
<path d="M30.478 40.2863C30.478 39.5729 31.0571 38.9943 31.7717 38.9943C32.4864 38.9943 33.0654 39.5737 33.0654 40.2863C33.0654 41.0012 32.4864 41.5791 31.7717 41.5791C31.0571 41.5799 30.478 41.0012 30.478 40.2863Z" fill="white"/>
<path d="M17.6016 46.6753C17.6016 45.9612 18.1806 45.3833 18.8953 45.3833C19.6099 45.3833 20.189 45.962 20.189 46.6753C20.189 47.3903 19.6099 47.9682 18.8953 47.9682C18.1806 47.9689 17.6016 47.3903 17.6016 46.6753Z" fill="white"/>
<path d="M24.0396 46.6753C24.0396 45.9612 24.6186 45.3833 25.3333 45.3833C26.0479 45.3833 26.627 45.962 26.627 46.6753C26.627 47.3903 26.0479 47.9682 25.3333 47.9682C24.6186 47.9689 24.0396 47.3903 24.0396 46.6753Z" fill="white"/>
<path d="M56.23 46.6753C56.23 45.9612 56.809 45.3833 57.5237 45.3833C58.2383 45.3833 58.8174 45.962 58.8174 46.6753C58.8174 47.3903 58.2376 47.9682 57.5237 47.9682C56.809 47.9689 56.23 47.3903 56.23 46.6753Z" fill="white"/>
<path d="M49.792 46.6753C49.792 45.9612 50.3711 45.3833 51.0857 45.3833C51.8003 45.3833 52.3786 45.962 52.3786 46.6753C52.3786 47.3903 51.7996 47.9682 51.0857 47.9682C50.3711 47.9689 49.792 47.3903 49.792 46.6753Z" fill="white"/>
<path d="M43.3545 46.6754C43.3545 45.9612 43.9336 45.3833 44.6474 45.3833C45.3613 45.3833 45.9411 45.962 45.9411 46.6754C45.9411 47.3903 45.3613 47.9682 44.6474 47.9682C43.9336 47.9682 43.3545 47.3903 43.3545 46.6754Z" fill="white"/>
<path d="M36.916 46.6753C36.916 45.9612 37.4951 45.3833 38.2097 45.3833C38.9244 45.3833 39.5027 45.962 39.5027 46.6753C39.5027 47.3903 38.9236 47.9682 38.2097 47.9682C37.4951 47.9689 36.916 47.3903 36.916 46.6753Z" fill="white"/>
<path d="M30.478 46.6753C30.478 45.9612 31.0571 45.3833 31.7717 45.3833C32.4864 45.3833 33.0654 45.962 33.0654 46.6753C33.0654 47.3903 32.4864 47.9682 31.7717 47.9682C31.0571 47.9689 30.478 47.3903 30.478 46.6753Z" fill="white"/>
<path d="M2.78888 32.7093C2.78888 32.7093 35.7274 12.1123 73.7181 32.224L73.7403 38.8718C73.7403 38.8718 40.7873 16.3482 2.76514 39.2851L2.78888 32.7093Z" fill="#009EE0"/>
<path d="M2.92676 53.066V69L13.824 68.9924V64.3079L8.74114 64.3156V53.066H2.92676Z" fill="white"/>
<path d="M55.8912 53.066H49.9229V68.9932H55.8912V53.066Z" fill="white"/>
<path d="M24.9556 67.1362L20.7758 67.1439L20.2005 68.9931H14.1426L19.7249 53.0323H26.3213L31.5413 68.9931H25.4964L24.9556 67.1362ZM23.9246 63.1452L22.9074 59.1941L21.855 63.1452H23.9246Z" fill="white"/>
<path d="M57.4893 68.9924L57.5145 53.0668H63.3787V58.6376L66.2763 53.0668H73.2052L68.647 60.5374L73.8647 68.9924H66.9756L63.3159 62.7196L63.3787 64.8407L63.3534 68.9924H57.4893Z" fill="white"/>
<path d="M31.876 68.9924L31.8423 53.0668H38.199L42.5006 60.0031V53.0668H48.4207L48.4536 68.9924H42.3221L37.7348 61.5746V68.9924H31.876Z" fill="white"/>
</svg>
