<?xml version="1.0" encoding="UTF-8"?>
<!DOCTYPE svg PUBLIC "-//W3C//DTD SVG 1.1//EN" "http://www.w3.org/Graphics/SVG/1.1/DTD/svg11.dtd">
<!-- Creator: CorelDRAW X8 -->
<svg xmlns="http://www.w3.org/2000/svg" xml:space="preserve" width="140mm" height="140mm" version="1.1" shape-rendering="geometricPrecision" text-rendering="geometricPrecision" image-rendering="optimizeQuality" fill-rule="evenodd" clip-rule="evenodd" viewBox="0 0 14000 14000" xmlns:xlink="http://www.w3.org/1999/xlink">
 <g id="Слой_x0020_1">
  <metadata id="CorelCorpID_0Corel-Layer"/>
  <g id="_682130256">
   <circle fill="#0D3D69" cx="7000" cy="7000" r="7000"/>
   <path fill="#FCFCFC" d="M6107 6741c33,-31 89,-47 134,-70 51,-26 81,-53 122,-78 -29,69 -150,149 -256,148zm2813 -616c117,20 218,72 357,72 139,1 237,-67 309,-122 -9,29 -3,14 -47,58 -152,151 -398,90 -577,20l-42 -28zm-375 -83c45,3 85,26 141,34 65,9 129,-2 194,-3 -23,19 -9,18 -79,26 -83,10 -202,10 -256,-57zm-1145 -283l23 -28c0,10 4,9 -9,29 -72,299 -3,211 8,367 -17,-22 -35,-55 -53,-77 -35,-42 -49,-35 -79,-67 39,-50 87,-153 110,-224zm1450 42c173,-39 226,48 383,36 118,-9 198,-123 255,-186 -13,44 -53,105 -77,142 -35,54 -66,68 -156,72l-379 -52c-18,-5 -17,-7 -26,-12zm-105 -156c98,-87 189,-48 293,19 -51,1 -80,-20 -129,-29 -77,-13 -103,8 -164,10zm543 660c76,-46 139,-2 338,-140 53,-37 90,-70 137,-109 207,-172 89,-45 244,-237l123 -121c42,-39 89,-120 130,-171l85 -99c-7,36 -155,254 -187,287 -44,44 -77,81 -119,127 -188,208 -39,69 -247,232 -135,104 -285,253 -504,231zm308 -730c-7,-100 -9,-60 -81,-114 53,-3 84,16 131,-14l53 -56c2,-2 4,-4 6,-6l23 -19c-27,78 -99,142 -132,209zm140 365c-125,17 -187,101 -355,73 -242,-40 -90,-40 -343,-33 -61,1 -21,2 -39,-9 258,-78 417,107 683,-53 31,-19 54,-81 87,-112 170,-158 210,-63 312,-291 171,-21 223,-212 226,-369 2,-75 4,-35 31,-88 27,-55 21,-135 52,-188 10,86 -39,208 -59,358 -8,60 -23,115 -47,166 -13,28 -26,52 -42,71 -9,10 -47,49 -56,55 -20,15 -45,20 -67,33 -50,26 -53,111 -162,172 -105,58 -185,91 -221,215zm-209 -1370c39,10 70,129 124,169 25,18 31,8 68,45l-280 -19c8,-5 9,-8 27,-13 39,-13 29,4 90,-36 7,-64 -6,-99 -29,-146zm-1137 -408c24,-56 40,-50 39,-129 33,23 32,50 72,59 40,10 65,-7 93,6 -32,19 -73,23 -111,31 -51,10 -58,25 -93,33zm-3050 383l40 -44c12,175 -8,211 121,405 165,248 258,31 313,-9 -28,217 56,198 182,284 195,132 230,11 311,-53 -7,132 -90,182 104,286 42,22 56,34 95,61 247,172 246,43 306,-115 30,45 -21,161 7,238 13,35 129,124 175,104 37,-16 63,-100 95,-123 -10,44 -43,142 -43,181 1,25 163,352 182,410 17,53 41,205 58,231 23,34 112,109 179,99 97,-13 94,-107 147,-136 -21,137 -118,161 -10,312 23,33 69,70 128,83 70,15 129,2 175,-27 48,-32 10,-2 9,-1 -1,1 -2,3 -3,6 -1,4 -2,8 -4,11 -20,29 -86,6 -85,224 -22,-6 -13,3 -21,-27 -4,-14 -5,-43 -7,-59 -20,-132 -246,-123 -247,-122 -71,65 -91,171 -190,199 47,-80 323,-308 61,-426 -100,-44 -188,-13 -258,39 -82,61 -110,121 -253,125 64,-51 228,-71 298,-291 36,-115 -57,-380 -121,-476 -31,-47 -25,-46 -70,-92 -19,-19 -38,-39 -52,-54l-120 -103c-233,-173 -180,-40 -271,-5 7,-147 -83,-223 -225,-74 -28,29 -54,45 -97,68 71,-125 201,-167 61,-271l-593 -333c-112,-22 -207,101 -308,153 17,-42 27,-42 54,-65 155,-130 2,-170 -80,-379 -35,-91 -29,-100 -105,-146 -117,-44 -198,-67 -315,-136 -201,-119 -159,-206 -293,-54 -85,98 -114,99 -12,281 41,73 93,64 193,54 -54,70 -102,51 -125,175 0,57 24,90 44,120 111,-4 99,-32 173,-61 0,199 92,201 263,163 56,91 21,179 298,376 71,50 132,84 202,132 37,26 66,44 100,68 135,93 314,387 442,416 50,11 96,3 141,-17 120,-55 117,-290 106,-408 25,30 2,-28 22,34 1,4 5,34 5,39 7,90 -6,186 -17,274 -13,108 88,191 206,158 40,-77 32,-204 33,-300 25,32 23,58 26,103 4,43 0,67 20,101 49,-10 51,-25 87,-45l-83 115c-27,36 -66,86 -74,141 -13,85 -15,313 -9,402 10,139 31,233 115,298 32,25 99,62 153,59 79,-5 86,-56 125,-90 -9,150 -2,176 145,168 55,-3 82,26 133,32 71,8 93,-18 146,-36 -23,34 -58,50 -105,56 -59,7 -86,-5 -134,-16 -57,-14 -86,7 -146,-11 -51,-16 -67,-38 -97,-68 -196,-12 -327,-72 -367,-248 -30,-127 12,-490 -36,-555 -71,-96 -263,-213 -414,-95 -27,22 -43,47 -67,78 -23,30 -48,56 -77,79 -60,46 -145,75 -243,72 4,-4 465,-130 237,-362 -36,-37 -38,-25 -72,-73 -127,-173 -176,-231 -373,-210 -120,13 -161,18 -276,-11 -121,-30 -125,-38 -264,-25 -80,7 -203,25 -266,-9 65,-8 397,-37 437,-30 101,18 346,87 430,15 -29,-109 -343,-213 -416,-352 -74,-137 -52,-139 -227,-165 -84,-13 -112,-113 -258,-133 -15,14 -31,30 -51,43 -6,167 -103,188 -68,500 -29,-26 -32,-36 -38,-94 -16,-155 41,-232 45,-344l-45 -24c-65,-20 -94,15 -154,21 26,-20 33,-19 63,-35 37,-19 29,-31 70,-37 38,-40 53,-46 66,-104l-2 -83c-7,-94 -81,-328 -127,-380 -43,-48 -143,-44 -200,-23 -89,33 -84,64 -141,106 35,-201 263,-133 331,-173 55,-31 229,-202 133,-312 -40,-47 -114,-125 -102,-225 26,29 36,79 64,118 54,70 44,38 122,68 4,73 -13,137 50,160 63,24 24,-9 62,40 92,116 312,248 468,191zm4741 -473c-20,50 -41,76 -34,148 12,114 -7,242 113,257 56,7 74,-23 120,-63 0,62 -13,214 -19,287 -7,93 -26,188 -79,233 0,158 11,143 -52,284 -42,95 -135,280 -231,317 -52,20 -8,-19 -53,35 -20,24 -26,29 -49,51 -43,39 -155,126 -224,133 37,-38 184,-96 263,-238 25,-44 33,-91 53,-124l5 90c16,5 -15,24 34,3 73,-31 187,-318 212,-390 32,-93 14,-97 -17,-177 125,-53 117,-244 102,-397 -231,8 -201,-144 -214,-345 -8,-112 -197,-189 -53,-395 19,37 -34,128 -17,189 17,60 71,108 140,102zm-2074 -259c-65,-40 -39,-35 -129,-46 -2,-36 10,-57 5,-104 -4,-44 -12,-50 -7,-97 22,50 21,81 53,129 15,24 21,32 42,59l36 59zm-3006 33c20,48 26,32 46,70 -38,-23 -63,-46 -123,-41 -46,61 -33,57 -54,88l-12 14c19,-116 12,-169 -73,-216 -70,-39 -197,-50 -276,-14 -65,31 -114,96 -144,179 -59,165 -20,193 -20,279 -50,-38 -85,-77 -196,-4 -162,106 -105,130 -199,214 -29,26 -43,45 -61,83 -48,98 -21,142 -11,238 -22,16 -49,43 -70,71 -50,69 -46,154 47,184 65,21 48,0 107,38 93,58 145,-23 191,-67 28,148 -103,182 128,261 11,3 16,4 25,9 18,10 13,9 23,18 -244,-22 -167,-9 -164,361 -16,-17 -8,1 -21,-26 -25,-50 -30,-383 -50,-488 -30,-6 -77,-9 -105,-16 -47,-13 -43,-29 -94,-41 -88,-20 -130,-35 -159,-96l-30 52c-8,24 -13,46 -17,72 -41,274 153,203 243,237l17 9c-145,9 -259,7 -295,-123 -50,-181 78,-324 151,-442 36,-58 6,-109 24,-188 28,-124 104,-169 160,-264 41,-71 142,-129 232,-181 119,-70 21,-58 142,-270 176,-310 481,-83 565,-49 47,-150 127,-270 216,-386 232,-303 -215,267 -143,435zm3470 -501c-91,-31 -144,-84 -116,-204 19,42 9,82 41,121 25,30 54,42 75,83zm-3316 -324c-123,90 -221,170 -246,333 -3,15 -3,37 -6,50 0,4 -7,24 -8,26 0,2 -4,9 -5,8 -1,-2 -4,5 -6,7 0,-78 24,-134 -24,-175 -57,-32 -171,68 -237,110 -138,87 -5,186 17,230 -60,-22 -93,-73 -124,-123 -34,15 -113,74 -145,100 -30,24 -37,29 -67,54 -100,84 -218,208 -247,345 64,49 76,21 129,45 -44,23 -138,15 -214,60 -113,67 -282,378 -208,569 -160,28 -227,238 -248,427 -35,322 134,308 248,401 -96,-1 -240,-111 -264,-164 -43,-95 -23,-289 -1,-391 20,-93 98,-249 144,-290 41,-35 30,1 46,-66 26,-103 28,-135 75,-248 142,-342 177,-192 267,-391 124,-274 245,-292 263,-384 16,-85 89,-252 156,-287 -41,99 -109,148 -120,282 74,-17 104,-60 151,-98 244,-198 145,-322 244,-432l-57 272c28,-10 227,-91 259,-119 80,-68 564,-406 228,-151zm2385 -298c-13,-90 5,-68 8,-72 39,120 28,148 88,266l136 227c-64,-45 -186,-257 -215,-349 -7,-20 -14,-47 -17,-72zm104 2669c14,-19 5,-8 22,-28 16,-17 10,-7 21,-23 26,-36 -1,-22 43,-48 10,-34 32,-58 52,-90 15,-29 33,-55 52,-94 17,-35 30,-82 53,-106l29 -96 30 -115c28,-105 114,-348 105,-449 -12,-125 -173,-235 -212,-323 122,48 143,148 222,176 90,-98 40,-405 60,-551 31,-229 225,-220 375,-127 83,52 94,81 140,173 56,113 58,83 174,127 92,35 93,117 171,140 74,21 170,-39 247,-33 -51,30 -177,55 -201,78 -50,46 -36,184 -14,247 77,219 208,137 416,163 -55,30 -211,14 -284,24 -108,14 -109,78 -166,126 13,-72 71,-137 34,-235 -30,-78 -114,-74 -210,-80 57,-39 143,-26 160,-108 12,-64 -40,-161 -67,-196 -171,-221 -308,-49 -342,-36 31,-86 90,-139 18,-254 -34,-55 -103,-115 -190,-144 -272,-90 -215,337 -219,432 -11,238 -30,159 -57,290 -26,123 20,164 105,207 396,203 325,0 346,-160 92,182 -110,267 104,412 95,65 136,109 156,123 83,55 141,11 221,14 -32,22 -65,40 -93,62 -13,118 47,248 137,273 90,24 244,-67 294,-102 -5,37 -14,33 -52,54 -65,36 -170,81 -193,142 -11,29 19,145 34,169 28,49 70,57 109,99 -29,12 -67,-18 -124,-20l-57 71c-6,-103 39,-162 -8,-282 -34,-84 -81,-149 -180,-85 -67,44 -145,76 -215,119 -118,74 -130,113 -182,146 48,-121 186,-200 297,-265 172,-100 135,-220 5,-332l-151 -127c-23,-18 -56,-42 -83,-62 -91,-67 -382,-250 -459,-220 -80,70 -80,211 -126,310 -5,24 -10,48 -16,70 -3,13 -5,22 -10,35 -14,31 -8,15 -19,27 -1,37 -17,77 -37,100 -16,68 -78,210 -117,248 -13,34 -20,29 -37,58l-107 111c-24,53 -52,102 11,135 66,33 136,-20 200,-22l13 -12c18,-12 7,-5 23,-14 17,-9 24,-12 40,-25 32,-26 30,-41 65,-61 29,-47 97,-137 152,-184 31,-60 55,-96 74,-165 16,-54 14,-44 45,-67 -11,162 -75,255 -163,348 -16,23 -39,51 -59,66 -18,56 -13,34 -50,70 -32,32 -32,30 -69,55l-40 27c156,117 402,39 557,126 -34,20 -116,-15 -164,-19 -73,-8 -117,15 -201,0 -94,-16 -280,-98 -358,-37 12,99 259,164 347,191l394 108c38,18 1,-1 22,15 -203,-8 -674,-176 -716,-162 -60,21 -129,262 -167,338 -24,49 -26,38 -37,47 45,-153 183,-380 58,-536 -34,-42 -299,-321 -379,-291 -30,47 -16,147 -30,204 -7,-12 -7,-2 -11,-26 -2,-7 -2,-25 -3,-32 -1,-27 -2,-46 -7,-73 -7,-41 -15,-74 -30,-113 -89,-234 -379,-432 -454,-399 -73,50 -43,186 -100,249 4,-192 113,-254 -118,-382 -57,-31 -138,-79 -212,-59 -74,20 -120,71 -184,94 38,-63 103,-82 106,-166 -4,-29 -237,-295 -356,-151 -42,52 -17,47 -93,115 9,-87 118,-146 64,-274 -51,-120 -84,-121 -89,-281 -9,-267 -13,-143 -60,-306 -36,-126 -6,-218 79,-258 -10,27 -26,36 -39,63 -13,28 -21,61 -19,99 5,91 41,108 68,174 53,134 -10,249 75,405 99,184 90,122 258,221 182,107 161,198 286,204 -10,-104 7,-209 34,-300 45,-150 216,-315 136,-504 -115,-271 33,-368 -201,-479 -125,-60 -135,41 -191,113 -72,90 -98,109 -16,227 40,58 123,143 60,239 -15,-28 3,-66 -28,-115 -24,-38 -49,-66 -73,-106 -114,-187 -158,-348 -313,-389 -378,-100 -399,376 -451,584 -58,230 -147,275 -349,349 10,-17 138,-82 166,-109 50,-50 90,-90 118,-171 58,-167 22,-729 439,-723 331,5 305,392 413,148 20,-44 26,-69 3,-116 -47,-100 -204,-192 -307,-229 -122,-43 -131,2 -232,10 2,-2 5,-8 6,-6l59 -42c133,-106 -96,-181 -126,-205 219,-24 103,-17 246,-99 216,-125 320,14 562,25 190,9 314,136 315,-42 0,-42 -11,-77 -12,-119 33,45 53,142 76,198 34,79 163,284 225,333 80,64 150,30 237,11 -2,2 -5,3 -6,7l-44 37c-80,80 -106,227 10,306 45,31 90,25 124,49 -81,16 -153,25 -169,103 -10,50 8,81 -5,126 -42,146 -157,365 -59,566l-23 21c-99,81 -275,412 -253,471 29,35 155,127 220,114 90,-18 100,-154 141,-200 -11,170 -157,227 99,481 45,45 126,115 191,154 114,69 138,78 245,8zm821 -2423c-89,-68 -231,-79 -322,-50 -23,47 -28,174 -76,192 6,-76 32,-120 11,-207 -29,-28 -40,-20 -66,-51 -99,-121 -127,-84 -221,-151l81 6c-20,-94 -102,-121 -131,-168 39,14 46,31 95,48 17,-23 13,-33 31,-57 13,104 19,152 88,223 254,265 375,-31 624,280 56,70 71,114 151,161 76,44 131,53 190,111l161 139c36,24 245,135 241,18 -3,-92 -274,-376 -274,-376 51,15 134,103 173,141 60,60 77,123 132,192 60,77 103,83 185,138 223,153 75,302 48,446 -51,271 425,88 325,588 258,33 242,239 132,428 -53,91 -106,103 -232,125 -101,18 -200,42 -306,50 74,-63 363,-59 440,-117 111,-82 182,-291 116,-382 -61,-85 -183,-64 -287,-49 13,-18 2,-7 18,-22l45 -34c121,-105 22,-314 -65,-352 -64,-29 -121,1 -175,18 16,-47 19,-41 14,-96 -66,-39 -110,-30 -202,-26l14 -12c47,-31 89,-23 133,-136 77,-198 97,-314 -58,-411 -128,-80 -94,-25 -210,-25 -129,1 -219,-63 -302,-132 -32,-26 -40,-42 -67,-68 -188,-180 -293,-71 -396,-165 46,1 61,22 113,14 -1,-67 -134,-202 -171,-231zm-1406 -487c62,17 92,88 176,85 27,-36 28,-53 48,-94 39,110 -128,106 225,672 208,333 165,181 271,292 -58,-2 -69,-32 -141,-19 -7,16 -24,168 -70,298 -135,382 -114,253 68,371 -31,16 -74,-6 -126,-11 0,36 56,330 131,375 12,8 32,19 54,24 39,11 33,-2 70,25 -77,7 -159,14 -193,67 -143,223 -33,510 -23,656 -47,-56 -64,-162 -76,-247 -7,-48 -10,-104 -8,-153 2,-55 22,-107 16,-156 -91,-75 -138,-30 -233,-23 50,-56 160,-48 245,-49 113,-104 50,-255 6,-392 -23,-72 -46,-138 -64,-205 -31,-119 -105,-80 -127,-129 51,10 97,34 151,29 34,-56 75,-176 90,-246 28,-133 -80,-120 -132,-176 64,9 88,41 156,41 24,-90 7,-145 -28,-219 -39,-80 -151,-265 -210,-325 -58,-60 -82,-19 -229,-52 30,-19 -29,-8 40,-14 20,-1 114,16 140,-28 44,-73 -75,-250 -145,-314l-82 -83zm0 0l-23 -21c51,11 11,-1 23,21zm-976 15c-12,-35 -52,-80 -78,-99 27,1 96,43 140,58 123,43 203,37 289,135 28,32 66,77 86,121 -27,-11 -81,-66 -100,-85 -95,-94 -287,-187 -364,-44 -12,-10 -8,-7 -20,-19 -2,-2 -8,-9 -10,-12 -66,-64 -205,-63 -306,-14 -52,25 -96,-2 -177,45 -81,46 -67,70 -117,113 32,-144 204,-166 262,-191 208,-86 200,-16 395,-8zm-2083 3172c16,1 32,1 47,2 38,3 18,-3 49,10l46 -1 37 -7c114,11 76,66 315,95 61,7 133,-5 185,27 43,28 97,49 146,67 51,19 299,87 321,103 30,23 73,85 98,114l438 421c114,90 231,213 357,290 89,54 94,96 242,192 208,133 297,246 576,280 228,28 533,62 745,-44 58,-29 86,-48 123,-88 80,-88 30,-33 127,-85 111,-59 95,-174 152,-284 73,-142 142,-295 -9,-466l-118 -105c-5,-49 8,-58 -7,-118 -12,-51 -31,-81 -7,-119 57,3 40,50 200,117 81,34 162,55 254,71 47,7 91,4 128,26 125,71 221,100 379,113 135,12 318,194 810,49 109,-33 208,-142 262,-230 42,-69 5,-50 90,-77 83,-27 117,-90 152,-171 41,-96 206,-118 247,-410 14,-96 50,-149 59,-262 25,-307 -68,-346 -59,-407 8,-59 24,-72 18,-150 -7,-106 -55,-174 -107,-234 8,-178 -22,-263 -120,-353 -45,-42 -32,-101 -67,-166 -53,-96 -168,-182 -236,-245 -108,-100 -56,-198 -505,-453 -54,-31 -125,-49 -170,-76 -24,-14 -37,-40 -52,-59 -26,-33 -35,-34 -65,-58 -81,-66 -217,-124 -320,-160 -96,-34 -84,-46 -149,-96 -117,-88 -209,-92 -372,-109 -45,-42 -75,-69 -145,-87 -104,-27 -126,-1 -217,1 -71,-174 -301,-103 -307,-104 -19,-1 -66,-26 -116,-33l-49 4 -29 -1c-7,4 1,7 -29,8 -37,2 -21,-4 -28,-8 -110,-19 -171,-57 -301,-41 -55,7 -105,30 -159,15 -45,-12 -85,-32 -135,-45 -499,-126 -702,40 -771,41 -207,3 -241,32 -415,116 -75,37 -91,-4 -259,97 -77,47 -137,97 -181,162 -105,-2 -186,24 -262,76 -39,27 -66,46 -91,76 -71,85 -117,75 -187,148l-77 90c-24,34 -44,64 -69,99 -74,106 -6,61 -110,135 -15,11 -32,30 -40,39 -86,89 -139,276 -173,317 -24,27 -63,47 -90,77 -72,81 -93,175 -126,208 -103,104 -125,135 -175,316 -31,112 -552,831 -219,1215 78,90 377,120 520,135z"/>
   <path fill="#FEFEFE" d="M5311 9146c214,123 429,313 587,505 126,155 160,193 275,395 91,158 220,445 232,662 -38,-14 -29,-6 -57,-68 -54,-119 -217,-395 -290,-501 -103,-149 -160,-204 -244,-314 -130,-172 -465,-465 -658,-591 -170,-110 -371,-225 -583,-318 -35,-12 -72,-30 -110,-47l-102 -47c-1,-4 -5,-4 -7,-6 17,-9 -8,-14 45,-9 8,0 38,8 48,9 329,66 567,159 864,330zm-3538 -1189l23 47c50,85 95,174 136,260 141,290 272,461 405,833 35,97 71,192 106,296 62,183 39,144 181,232l1500 964c158,96 348,228 463,362 235,275 200,728 196,1083 599,35 1171,32 1768,23 23,-110 -1,-467 3,-609 5,-197 53,-352 45,-569 -13,-371 -147,-677 -300,-936 -56,-93 -178,-270 -257,-357l-149 -163c-453,-491 -809,-637 -1390,-698l-307 3c-115,-8 -95,-4 -185,-55 -220,-124 -485,-425 -644,-639 -18,-24 -34,-38 -51,-61 -67,-92 -138,-158 -218,-239 -133,-136 -563,-422 -757,-389 -61,10 -133,42 -157,76 -70,100 3,184 38,256 -7,-46 -60,-107 -43,-182 38,-163 320,-122 510,23 51,38 87,78 122,135 146,233 -319,355 -326,360l166 235c242,331 55,148 391,490 18,18 35,30 52,48l347 435c61,83 305,452 341,539 30,70 -4,70 -5,70 -66,54 -98,-49 -125,-97 -102,-181 -166,-267 -279,-434l-313 -401c-94,-102 -286,-280 -344,-369 -208,-320 -288,-413 -497,-697 -103,-139 -255,-281 -110,-474 51,-66 93,-68 182,-108 -12,-182 -54,-405 -78,-593 -23,-294 -12,-579 -136,-847 -53,-115 -209,-379 -361,-239 -91,86 -62,246 -57,389 20,578 38,679 -44,1294 -27,198 -50,195 19,382 42,115 100,215 139,321z"/>
   <path fill="#FEFEFE" d="M7136 10708c-59,-117 203,-629 256,-721 94,-169 202,-296 321,-427 110,-120 262,-253 402,-346 251,-166 706,-377 1020,-407 64,-6 27,-1 44,9 -24,25 -50,30 -90,47 -539,221 -996,515 -1372,958l-109 137c-186,244 -231,331 -381,599 -38,68 -56,138 -91,151zm2308 -1993c-141,58 -824,-161 -1567,485 -21,18 -33,25 -55,46 -110,104 -141,126 -244,246 -17,20 -29,24 -46,43 -27,30 -64,77 -90,111 -102,129 -146,189 -237,343 -225,380 -312,777 -248,1280 28,103 22,266 22,380 0,94 -15,333 2,408l155 4c129,-4 270,6 401,5 123,-1 285,-12 400,-6 278,-5 523,-14 810,-27 12,-74 1,-264 1,-351 -1,-691 213,-788 673,-1105 479,-329 1024,-650 1510,-966 126,-81 96,-37 150,-196 57,-170 117,-347 189,-511 173,-378 410,-753 574,-1135 132,-307 107,-262 67,-560 -84,-627 -60,-680 -37,-1293 4,-109 29,-236 -32,-312 -146,-181 -289,19 -367,168 -161,307 -115,561 -155,880 -23,181 -70,424 -77,601 125,38 231,105 231,258 1,156 -92,236 -159,319 -203,249 -328,443 -502,704 -45,69 -174,202 -236,254l-169 189c-28,30 -32,42 -54,68 -38,43 -69,82 -104,130 -152,203 -256,362 -385,585 -10,17 -38,70 -48,76 -36,23 -74,8 -79,-30 -7,-47 230,-409 258,-450 35,-49 68,-99 101,-144 149,-200 381,-492 559,-646 47,-40 67,-76 106,-138l288 -424c-136,-22 -257,-85 -321,-172 -106,-145 67,-287 183,-360 146,-91 386,-133 436,9 26,74 -17,138 -37,191 99,-131 96,-269 -82,-319 -131,-36 -308,49 -409,105 -504,285 -970,1090 -1376,1257z"/>
   <path fill="#FDFDFD" d="M4670 7332c12,-7 -8,-2 24,-10l111 -23c121,-38 228,-110 317,-196 61,-60 365,-259 424,-228 -29,34 -255,128 -360,225 -99,90 -94,97 -250,175 -46,22 -175,79 -232,72 -60,-7 -19,-3 -34,-15zm-319 -827c108,34 216,101 324,131 200,56 410,68 615,43 83,-11 216,-43 294,-38 -31,37 -123,47 -185,60 -68,14 -135,26 -202,42 -115,316 -260,394 -594,376 -72,-3 -200,-11 -261,-54 17,-7 -29,-20 58,1 144,36 314,28 455,-7 166,-40 273,-196 272,-307 -87,-27 -205,-28 -303,-38 -188,-19 -115,-16 -226,77 -170,141 -493,145 -548,106 82,-48 397,61 584,-219 -221,-110 -431,-199 -653,-317l-278 -157c-14,-9 -34,-21 -41,-27 -32,-26 -19,-16 -30,-42 27,9 718,369 719,370zm610 98c-32,-37 -19,-168 -161,-303 -123,-117 -259,-178 -347,-267 -30,-30 -51,-41 -66,-91 47,21 62,42 94,74 45,45 199,125 277,192 92,79 273,300 203,395zm-966 -810c-121,-13 -478,-109 -512,-106 -13,136 -52,311 54,426 53,57 19,-9 51,117 71,281 217,570 427,766 116,107 348,288 513,333l-123 455 366 131c111,-68 419,-440 502,-594 57,-105 39,-77 140,-139 158,-96 350,-205 426,-385 -20,-31 -58,-57 -91,-84l-471 -422c-58,-64 -105,-121 -167,-190 -33,-38 -202,-76 -259,-98 -47,-18 -234,-105 -248,-107 -122,-17 -190,-7 -310,-48 -47,-16 -91,-46 -135,-48 -56,-3 -111,3 -163,-7z"/>
   <path fill="#FDFDFD" d="M6906 3387l-36 -14c20,-16 -2,-11 38,-14 61,-2 75,-13 93,-64 -19,-78 -91,-110 -143,-169 -51,-57 -81,-120 -129,-183 -67,-89 -105,-51 -222,-90 -93,-31 -174,-73 -252,-3 -87,-57 -112,-88 -266,-115 -118,-21 -216,52 -268,102 -23,187 103,197 234,256 116,52 174,137 241,241 34,-49 119,-168 179,-185 -30,41 -82,79 -74,157 79,84 165,46 213,176 46,122 0,207 66,335 98,193 -69,385 -134,606 -36,123 -31,237 49,304 130,110 183,87 232,-23 99,-224 287,-390 190,-498l-34 -37c76,-24 77,-83 92,-173 14,-80 37,-151 56,-225 40,-161 75,-370 -125,-384z"/>
   <path fill="#F8F8F8" d="M7167 10604c27,-29 25,-38 44,-73 15,-27 24,-44 40,-72 111,-197 301,-496 453,-662 28,-30 30,-24 54,-57 55,-74 69,-71 107,-117 149,-179 610,-497 838,-612 48,-25 98,-50 149,-75 51,-24 115,-46 161,-75 -290,25 -699,248 -933,408l-125 98c-34,28 -24,15 -59,53 -41,44 -76,51 -170,165l-106 117c-159,173 -420,650 -453,902z"/>
   <path fill="#F8F8F8" d="M4686 8935c200,82 563,327 722,459 367,305 654,644 879,1074 24,46 46,98 77,141 -8,-205 -267,-682 -414,-854 -103,-122 -173,-216 -309,-337 -37,-33 -81,-64 -118,-94 -273,-225 -527,-317 -848,-429l-158 -34c52,34 112,50 169,74z"/>
   <path fill="#FCFCFC" d="M2235 5953c7,19 10,36 14,54 10,48 17,83 21,132 32,142 28,393 47,558 22,180 46,361 73,541l65 13c-45,-488 -205,-958 -145,-1423 12,-99 41,-174 39,-281 -3,-183 -122,-359 -274,-353 -46,70 -79,194 -98,298 146,209 173,211 258,461z"/>
   <path fill="#FCFCFC" d="M2481 7979c151,-22 355,-143 336,-254 -10,-56 -88,-143 -126,-175 -260,-214 -593,-173 -457,89 69,136 179,220 247,340z"/>
   <path fill="#FCFCFC" d="M11053 7978c19,-45 87,-118 122,-164 50,-65 82,-99 122,-179 149,-294 -260,-265 -452,-85 -31,30 -122,110 -130,174 -15,118 202,242 338,254z"/>
   <path fill="#F8F8F8" d="M2724 7349c-31,-209 -81,-463 -85,-675 -3,-124 0,-485 -63,-593l-51 -55c-19,284 54,420 87,667 26,204 35,450 55,605 6,45 11,38 57,51z"/>
   <path fill="#FAFAFA" d="M10809 7349c82,-25 55,-61 73,-284 9,-106 18,-209 31,-314 39,-317 97,-331 95,-726 -31,17 -25,13 -47,46 -70,107 -63,462 -67,592 -6,232 -57,457 -85,686z"/>
   <path fill="#F3F3F3" d="M2563 7273c18,-55 -50,-613 -72,-705 -113,-479 -34,-404 -75,-734 -72,135 15,574 39,736 14,98 88,662 108,703z"/>
   <path fill="#F3F3F3" d="M10968 7282c33,-245 240,-1274 149,-1447 -44,303 41,245 -76,730 -26,109 -85,618 -73,717z"/>
   <path fill="#282828" d="M7059 2482c-12,-22 28,-10 -23,-21l23 21z"/>
   <path fill="#FCFCFC" d="M11300 5951c-7,19 -11,36 -14,54 -11,48 -17,83 -22,132 -31,142 -27,393 -47,558 -22,180 -45,361 -72,541l-66 13c46,-488 206,-958 146,-1423 -13,-99 -42,-174 -40,-281 3,-128 55,-277 143,-338 164,-114 212,183 230,283 -147,209 -174,211 -258,461z"/>
  </g>
 </g>
</svg>